%YAML 1.1
%TAG !u! tag:unity3d.com,2011:
--- !u!1 &8723534634371228365
GameObject:
  m_ObjectHideFlags: 0
  m_CorrespondingSourceObject: {fileID: 0}
  m_PrefabInstance: {fileID: 0}
  m_PrefabAsset: {fileID: 0}
  serializedVersion: 6
  m_Component:
  - component: {fileID: 8723534634371228360}
  - component: {fileID: 8723534634371228363}
  - component: {fileID: 8723534634371228362}
  - component: {fileID: 8723534634371228361}
  m_Layer: 0
  m_Name: Terrain
  m_TagString: Untagged
  m_Icon: {fileID: 0}
  m_NavMeshLayer: 0
  m_StaticEditorFlags: 4294967295
  m_IsActive: 1
--- !u!4 &8723534634371228360
Transform:
  m_ObjectHideFlags: 0
  m_CorrespondingSourceObject: {fileID: 0}
  m_PrefabInstance: {fileID: 0}
  m_PrefabAsset: {fileID: 0}
  m_GameObject: {fileID: 8723534634371228365}
  m_LocalRotation: {x: 0, y: 0, z: 0, w: 1}
  m_LocalPosition: {x: 0, y: 0, z: 0}
  m_LocalScale: {x: 1, y: 1, z: 1}
  m_Children: []
  m_Father: {fileID: 0}
  m_RootOrder: 0
  m_LocalEulerAnglesHint: {x: 0, y: 0, z: 0}
--- !u!218 &8723534634371228363
Terrain:
  m_ObjectHideFlags: 0
  m_CorrespondingSourceObject: {fileID: 0}
  m_PrefabInstance: {fileID: 0}
  m_PrefabAsset: {fileID: 0}
  m_GameObject: {fileID: 8723534634371228365}
  m_Enabled: 1
  serializedVersion: 6
  m_TerrainData: {fileID: 15600000, guid: 4e643f45c151aff4e86190821b20fe83, type: 2}
  m_TreeDistance: 5000
  m_TreeBillboardDistance: 50
  m_TreeCrossFadeLength: 5
  m_TreeMaximumFullLODCount: 50
  m_DetailObjectDistance: 80
  m_DetailObjectDensity: 1
  m_HeightmapPixelError: 5
  m_SplatMapDistance: 1000
  m_HeightmapMaximumLOD: 0
  m_ShadowCastingMode: 2
  m_DrawHeightmap: 1
  m_DrawInstanced: 0
  m_DrawTreesAndFoliage: 1
  m_ReflectionProbeUsage: 1
  m_MaterialTemplate: {fileID: 10652, guid: 0000000000000000f000000000000000, type: 0}
  m_BakeLightProbesForTrees: 1
  m_PreserveTreePrototypeLayers: 0
  m_DeringLightProbesForTrees: 1
  m_ScaleInLightmap: 0.0256
  m_LightmapParameters: {fileID: 15203, guid: 0000000000000000f000000000000000, type: 0}
  m_GroupingID: 0
  m_RenderingLayerMask: 1
  m_AllowAutoConnect: 1
--- !u!154 &8723534634371228362
TerrainCollider:
  m_ObjectHideFlags: 0
  m_CorrespondingSourceObject: {fileID: 0}
  m_PrefabInstance: {fileID: 0}
  m_PrefabAsset: {fileID: 0}
  m_GameObject: {fileID: 8723534634371228365}
  m_Material: {fileID: 0}
  m_Enabled: 1
  m_TerrainData: {fileID: 15600000, guid: 4e643f45c151aff4e86190821b20fe83, type: 2}
  m_EnableTreeColliders: 1
--- !u!114 &8723534634371228361
MonoBehaviour:
  m_ObjectHideFlags: 0
  m_CorrespondingSourceObject: {fileID: 0}
  m_PrefabInstance: {fileID: 0}
  m_PrefabAsset: {fileID: 0}
  m_GameObject: {fileID: 8723534634371228365}
  m_Enabled: 1
  m_EditorHideFlags: 0
  m_Script: {fileID: 910771039, guid: f56d46228aee4734f9114056c53bb57e, type: 3}
  m_Name: 
  m_EditorClassIdentifier: 
  surfacevecs: []
  tdataFloat: []
  terrainData: {fileID: 15600000, guid: 4e643f45c151aff4e86190821b20fe83, type: 2}
  xStart: 0
  zStart: 0
  roadSurface: {fileID: 0}
  surfaceMesh: {fileID: 0}
  surfaceCollider: {fileID: 0}
  terrainDataStored: []
  terrainChanges: []
  terrainTrees: []
  detailInstances: []
  detailInstanceStarts: 
  surfaceObjects: []
  terrainTestPoints: []
  splatData: []
  addedTrees: []
  holes: []
  terrainHeightsBackup: []
  terrainTreesBackup: []
  terrainDetailBackup: []
  terrainSplatBackup: []
  detailInstanceStartsBackUp: 
  heightmapFlag: 0
  splatmapFlag: 0
  treeFlag: 0
  detailFlag: 0
  holesFlag: 0
  terrainDone: 0
  backupFlagNotification: 0
  ignore: 0
  backupObject: {fileID: 0}
  terrain: {fileID: 0}
